[
  {
    "id": "1",
    "name": "基准模型",
    "list": [
      "anything-v4.0-fp16-default","novelai-leak-full"
    ]
  },
  {
    "id": "2",
    "name": "公开模型",
    "list": [
      "akakura-sn","SayHANa_4000","shion_v2_2000_bs2","teradatera_3000","tico_4000",
      "TOKIAME-13000-KA","lolitafashion_4000","lee_4000"
    ]
  },
  {
    "id": "3",
    "name": "CyanNAI模型",
    "list": [
      "metcha-E6_512_7000","quan-E6_512_7000","shiratama-E6_512_10000",
      "suzukannn-cg_512_5000","5ma_512_V2_5000","konya-E6_512_7000","CNAIMM.A.SZCB911.E6.7000","CNAIMM.A.COCONE.E6.22500"
    ]
  }
]
