{
    "name": " donadona_3000",
    "images": ["https://files.catbox.moe/6ab0ef.png","https://files.catbox.moe/bxwo9l.png","https://files.catbox.moe/zwvp58.png"],
    "intro": "游戏《多娜多娜 一起干坏事吧！》<br>AliceSoft/魚介<br><br>by Zhuym @Zhuym_Daily"
}